{
  "type": "service_account",
  "project_id": "pc-api-7915631500889519510-57",
  "private_key_id": "4d5500bfc75ef2e6846f3bcf555b671bbec2817f",
  "private_key": "-----BEGIN PRIVATE KEY-----\nMIIEvgIBADANBgkqhkiG9w0BAQEFAASCBKgwggSkAgEAAoIBAQDHW7mIlXI/MpCD\nru2JEZt0ljTTq+vn1Tib45rZyMUjJPEGMIyLlwotySPnOMUf0aOvFOkCfbZF+LWa\n4aRSpkSb6bTDC+hbBS9/bRUU1cRLB0tHrgm9ndHbsDc5ax/fdUIqePNKAWsoy9OZ\nYOPrsRCr+DoCiR7+GpL5W0h/qJSwndm2hiJMgZ7Nzux2VAl5t0finLDzIHZbqCyM\npJ4vn4UJEsti0GfvbdebWvsD4xgX6JL0NYiKHNTjIjHqBV0QneLRjMppz+ZbQtfL\nVlaMdICUsyaNcwMrXVuRgL91yuOpifDL/cpD18QCSCYnbrLCwr7ah+iEpdz/yxVl\nICZIUs2TAgMBAAECggEAHh9jcNpX+WmcAXG4jYn+Ccc6czNagVyr4Y4qEzctZmqK\nCqviSKNJU/K8/I6M5opoJ6fKr2gsVvVGB4GJsT1TR5WwDPqrILmvXBsw4MWOE+Il\nw05uRVrn30CIj6H6nmqa1U0SQb/mH7NwpQ/JUI8gHEP1C/YJG08LnybmVPe1g9wJ\nwL3L3iUjysRUKxwWQQ+SnWeXTtPCNvFyljJ4ad9f9/zlogY+nVov17WVnafz57fV\n7Qr5JRxz8UIQzagJirsyI/mPEzUXIAnZUlGn6E52EiHR4dSi1ZZ37p+7yV/Z8md1\nwpVKlLU80eiffpsBe4iJbzWNTnNWwXMkxAJdm9KptQKBgQDo2r0l+kf/AHdiSfD9\nv49eTmXEdzpjTovWGdN3o3nsxOJY+FXWqWJC4i5SjF+xZnWtbq1QnN+dxwlVeWYN\nrjVYbD5jGGHxMaCK3jRFZ/ue2iYg88CMHgbO/GrwpsA/r/rGSNtlOfT0RRa9dfn6\nczfajouE/7zKkMr0fWb9rOFmXQKBgQDbLKLZ3KZVcOrv2eLp4gzT7a7lzad1q+25\nxLOwdZVeybFXmLFHnlxqUNMSgXo8KX/iLUno/4oziWY/ZVeNdhANZYiloKlr9mIJ\nMIesMO+wJF2888Pl4xM3iiU+bBbY6cq5lt7+fxdKWgAItiXoXmGRb0Lpqlp3e1jz\nXOGj0C/krwKBgFXYNn1mzN4c7OZmfhr+YTuSSYBpuDPeRD1VXhmwQgXg+9VzECpI\nXfpsaklyiODc9itPL0QV4XbIZw+E5vPKMs57cXCVD56c/iPUEY8465G/uOjTFDxT\n4YyzkDVSNHQGS7yIJaInAMCBLAYDFXqYuZGwlY0dvxsq0Dfcd3i0IJDdAoGBAMFV\nRGnNO2RO8M6WcpVA83PWS9smZ7ti55ZgrujPL+2nGKpeZLL6PCcEGMxQLlT3fnky\n3emL0IrZfroZWPvN0yceE0WWzRwRADV++46mtCe6TH2qwXj9ryvkzimcCyNYR50i\nOp5f2VmavkDw+8tXxdUWQf4AaUDQK4ywt9FaiYS9AoGBAIiV4z8/Xif5ao3GWqa1\nFinZm7ISvPywqeEShpNg6yWHjIDe655pQzkzDCsMCGdTg5QInl+h2ErzuHcdhl/8\n+aew/pT8fJ0xioFCGgkAT3tViTGUEyJPQRS/+uMTVVNzyMDWcAdYJXR6SA0158Iz\n9222u36TiHGdLcYwW4E3Ckaa\n-----END PRIVATE KEY-----\n",
  "client_email": "fastlane@pc-api-7915631500889519510-57.iam.gserviceaccount.com",
  "client_id": "118306739345246402089",
  "auth_uri": "https://accounts.google.com/o/oauth2/auth",
  "token_uri": "https://oauth2.googleapis.com/token",
  "auth_provider_x509_cert_url": "https://www.googleapis.com/oauth2/v1/certs",
  "client_x509_cert_url": "https://www.googleapis.com/robot/v1/metadata/x509/fastlane%40pc-api-7915631500889519510-57.iam.gserviceaccount.com"
}
