{
  "project_info": {
    "project_number": "679143964851",
    "firebase_url": "https://bedaddy-2019.firebaseio.com",
    "project_id": "bedaddy-2019",
    "storage_bucket": "bedaddy-2019.appspot.com"
  },
  "client": [
    {
      "client_info": {
        "mobilesdk_app_id": "1:679143964851:android:b5b9aa3439dcdaf9",
        "android_client_info": {
          "package_name": "com.bedaddy"
        }
      },
      "oauth_client": [
        {
          "client_id": "679143964851-veaqvj2pdrhualpar0qffs50aiv8pkvt.apps.googleusercontent.com",
          "client_type": 3
        }
      ],
      "api_key": [
        {
          "current_key": "AIzaSyBQYvCEFfibtCt-pFp92ugwTkuE0tKB13o"
        }
      ],
      "services": {
        "analytics_service": {
          "status": 1
        },
        "appinvite_service": {
          "status": 1,
          "other_platform_oauth_client": []
        },
        "ads_service": {
          "status": 2
        }
      }
    }
  ],
  "configuration_version": "1"
}